<svg width="31" height="30" viewBox="0 0 31 30" fill="none" xmlns="http://www.w3.org/2000/svg">
          <path
            d="M30.5 15.017l-2.568-3.348.575-4.16-3.92-1.556-1.553-3.924-4.156.575L15.5 0l-3.345 2.57L8 1.995 6.446 5.92 2.527 7.475l.574 4.16L.5 15.017l2.568 3.348-.575 4.16 3.92 1.556 1.553 3.924 4.156-.575L15.466 30l3.345-2.57 4.155.575 1.554-3.924 3.92-1.59-.575-4.16 2.635-3.314zm-16.216 4.87l-5-4.126 1.08-1.32 3.717 3.045 6.351-7.34 1.284 1.117-7.432 8.624z"
            fill="#FF612A" />
        </svg>