<svg width="30" height="30" viewBox="0 0 30 30" fill="none" xmlns="http://www.w3.org/2000/svg">
          <path
            d="M7.869 18.516a7.913 7.913 0 004.222 3.85c-.547-1.06-.95-2.399-1.195-3.85H7.869zM7.869 11.484h3.027c.246-1.451.648-2.79 1.195-3.85a7.913 7.913 0 00-4.222 3.85zM15.036 7.102c-.02 0-.037-.006-.055-.006-.78.025-1.8 1.661-2.305 4.388h4.648c-.501-2.708-1.51-4.336-2.289-4.382zM14.981 22.904c.018 0 .036-.006.055-.006.778-.046 1.787-1.673 2.288-4.382h-4.648c.504 2.727 1.524 4.363 2.305 4.388zM10.605 15c0-.585.024-1.174.072-1.758H7.22A7.853 7.853 0 007.007 15c0 .606.083 1.19.213 1.758h3.457A21.678 21.678 0 0110.605 15zM17.943 7.697c.53 1.049.92 2.365 1.161 3.787h2.862c-.849-1.694-2.263-3.056-4.023-3.787zM19.395 15c0 .585-.024 1.174-.072 1.758h3.292c.13-.568.213-1.152.213-1.758 0-.606-.083-1.19-.213-1.758h-3.292c.047.584.072 1.173.072 1.758z"
            fill="#FF612A" />
          <path
            d="M30 15c0-8.239-6.761-15-15-15S0 6.761 0 15s6.761 15 15 15c2.757 0 5.436-.81 7.775-2.238L30 30l-2.062-7.521C29.25 20.212 30 17.636 30 15zm-14.93 9.66c-.023.001-.046.008-.07.008-.009 0-.017-.003-.026-.003-.019 0-.037.003-.056.003-5.331 0-9.668-4.337-9.668-9.668 0-5.33 4.337-9.668 9.668-9.668.019 0 .037.003.056.003.01 0 .017-.003.026-.003.024 0 .047.007.07.008 5.26.083 9.516 4.38 9.516 9.66s-4.255 9.577-9.515 9.66z"
            fill="#FF612A" />
          <path
            d="M12.436 13.242a21.08 21.08 0 000 3.516h5.128a21.08 21.08 0 000-3.516h-5.128zM17.943 22.303c1.76-.731 3.174-2.093 4.023-3.787h-2.862c-.24 1.422-.63 2.738-1.16 3.787z"
            fill="#FF612A" />
        </svg>